авг 26, 2016 12:50:52 PM pack.KassaLogger logInfo
INFO: СДАЧА: 71.69999999999999
авг 26, 2016 12:50:52 PM pack.KassaLogger logInfo
INFO: ===========================================================
авг 26, 2016 4:27:14 PM pack.KassaLogger logInfo
INFO: ВВЕДЕНА СУММА: 349.0
авг 26, 2016 4:27:14 PM pack.KassaLogger logInfo
INFO: СДАЧА: 0.22000000000002728
авг 26, 2016 4:27:14 PM pack.KassaLogger logInfo
INFO: ===========================================================
авг 26, 2016 8:46:35 PM pack.KassaLogger logInfo
INFO: СУММА ПОКУПОК: 771.37
авг 26, 2016 8:46:35 PM pack.KassaLogger logInfo
INFO: ОПЛАТА НЕ ПРОИЗОШЛА, НЕДОСТАТОЧНО СРЕДСТВ
авг 26, 2016 8:46:35 PM pack.KassaLogger logInfo
INFO: ===========================================================
авг 26, 2016 8:46:45 PM pack.KassaLogger logInfo
INFO: Чио-Рио / 3.0 / кг / 75.99 / 227.96999999999997
авг 26, 2016 8:46:45 PM pack.KassaLogger logInfo
INFO: Апельсин / 4 / шт / 42.5 / 170.0
авг 26, 2016 8:46:45 PM pack.KassaLogger logInfo
INFO: Груша / 2 / шт / 30.9 / 61.8
авг 26, 2016 8:46:45 PM pack.KassaLogger logInfo
INFO: Бананы / 4.0 / кг / 69.9 / 279.6
авг 26, 2016 8:46:45 PM pack.KassaLogger logInfo
INFO: Ирис / 1.000 / кг / 32.0 / 32.0
авг 26, 2016 8:46:45 PM pack.KassaLogger logInfo
INFO: НАЛИЧНЫЙ РАСЧЁТ
авг 26, 2016 8:46:45 PM pack.KassaLogger logInfo
INFO: СУММА ПОКУПОК: 771.37
авг 26, 2016 8:46:45 PM pack.KassaLogger logInfo
INFO: ВВЕДЕНА СУММА: 772.0
авг 26, 2016 8:46:45 PM pack.KassaLogger logInfo
INFO: СДАЧА: 0.6299999999999955
авг 26, 2016 8:46:45 PM pack.KassaLogger logInfo
INFO: ===========================================================
авг 26, 2016 8:48:39 PM pack.KassaLogger logInfo
INFO: СДАЧА: 264.43199999999996
авг 26, 2016 8:48:39 PM pack.KassaLogger logInfo
INFO: ===========================================================
авг 26, 2016 8:52:29 PM pack.KassaLogger logInfo
INFO: СДАЧА: 3.019999999999982
авг 26, 2016 8:52:29 PM pack.KassaLogger logInfo
INFO: ===========================================================
авг 27, 2016 12:10:14 AM pack.KassaLogger logInfo
INFO: СДАЧА: 40.610000000000014
авг 27, 2016 12:10:14 AM pack.KassaLogger logInfo
INFO: ===========================================================
