авг 09, 2016 8:16:15 PM pack.KassaLogger logInfo
INFO: НАЛИЧНЫЙ РАСЧЁТ
авг 09, 2016 8:16:15 PM pack.KassaLogger logInfo
INFO: СУММА ПОКУПОК: 170.0
авг 09, 2016 8:16:15 PM pack.KassaLogger logInfo
INFO: ВВЕДЕНА СУММА: 170.0
авг 09, 2016 8:16:15 PM pack.KassaLogger logInfo
INFO: СДАЧА: 0.0
авг 09, 2016 8:16:15 PM pack.KassaLogger logInfo
INFO: ===========================================================
авг 09, 2016 8:24:05 PM pack.KassaLogger logInfo
INFO: НАЛИЧНЫЙ РАСЧЁТ
авг 09, 2016 8:24:05 PM pack.KassaLogger logInfo
INFO: СУММА ПОКУПОК: 61.8
авг 09, 2016 8:24:05 PM pack.KassaLogger logInfo
INFO: ВВЕДЕНА СУММА: 62.0
авг 09, 2016 8:24:05 PM pack.KassaLogger logInfo
INFO: СДАЧА: 0.20000000000000284
авг 09, 2016 8:24:05 PM pack.KassaLogger logInfo
INFO: ===========================================================
авг 26, 2016 12:50:52 PM pack.KassaLogger logInfo
INFO: Груша / 1 / шт / 30.9 / 30.9
авг 26, 2016 12:50:52 PM pack.KassaLogger logInfo
INFO: Апельсин / 1 / шт / 42.5 / 42.5
авг 26, 2016 12:50:52 PM pack.KassaLogger logInfo
INFO: НАЛИЧНЫЙ РАСЧЁТ
авг 26, 2016 12:50:52 PM pack.KassaLogger logInfo
INFO: СУММА ПОКУПОК: 143.3
авг 26, 2016 12:50:52 PM pack.KassaLogger logInfo
INFO: ВВЕДЕНА СУММА: 215.0
авг 26, 2016 12:50:52 PM pack.KassaLogger logInfo
INFO: СДАЧА: 71.69999999999999
авг 26, 2016 12:50:52 PM pack.KassaLogger logInfo
INFO: ===========================================================
авг 26, 2016 4:27:14 PM pack.KassaLogger logInfo
INFO: Манка / 1.000 / кг / 30.0 / 30.0
авг 26, 2016 4:27:14 PM pack.KassaLogger logInfo
INFO: Гранат / 2 / шт / 85.99 / 171.98
авг 26, 2016 4:27:14 PM pack.KassaLogger logInfo
INFO: Апельсин / 2 / шт / 42.5 / 85.0
авг 26, 2016 4:27:14 PM pack.KassaLogger logInfo
INFO: НАЛИЧНЫЙ РАСЧЁТ
авг 26, 2016 4:27:14 PM pack.KassaLogger logInfo
INFO: СУММА ПОКУПОК: 348.78
авг 26, 2016 4:27:14 PM pack.KassaLogger logInfo
INFO: ВВЕДЕНА СУММА: 349.0
авг 26, 2016 4:27:14 PM pack.KassaLogger logInfo
INFO: СДАЧА: 0.22000000000002728
авг 26, 2016 4:27:14 PM pack.KassaLogger logInfo
INFO: ===========================================================
авг 26, 2016 7:40:41 PM pack.KassaLogger logInfo
INFO: НАЛИЧНЫЙ РАСЧЁТ
авг 26, 2016 7:40:41 PM pack.KassaLogger logInfo
INFO: СУММА ПОКУПОК: 30.9
авг 26, 2016 7:40:41 PM pack.KassaLogger logInfo
INFO: ВВЕДЕНА СУММА: 31.0
авг 26, 2016 7:40:41 PM pack.KassaLogger logInfo
INFO: СДАЧА: 0.10000000000000142
авг 26, 2016 7:40:41 PM pack.KassaLogger logInfo
INFO: ===========================================================
авг 26, 2016 8:09:56 PM pack.KassaLogger logInfo
INFO: НАЛИЧНЫЙ РАСЧЁТ
авг 26, 2016 8:09:56 PM pack.KassaLogger logInfo
INFO: СУММА ПОКУПОК: 30.9
авг 26, 2016 8:09:56 PM pack.KassaLogger logInfo
INFO: ВВЕДЕНА СУММА: 45.0
авг 26, 2016 8:09:56 PM pack.KassaLogger logInfo
INFO: СДАЧА: 14.100000000000001
авг 26, 2016 8:09:56 PM pack.KassaLogger logInfo
INFO: ===========================================================
авг 26, 2016 8:46:35 PM pack.KassaLogger logInfo
INFO: Апельсин / 4 / шт / 42.5 / 170.0
авг 26, 2016 8:46:35 PM pack.KassaLogger logInfo
INFO: Груша / 2 / шт / 30.9 / 61.8
авг 26, 2016 8:46:35 PM pack.KassaLogger logInfo
INFO: Бананы / 4.0 / кг / 69.9 / 279.6
авг 26, 2016 8:46:35 PM pack.KassaLogger logInfo
INFO: Ирис / 1.000 / кг / 32.0 / 32.0
авг 26, 2016 8:46:35 PM pack.KassaLogger logInfo
INFO: БЕЗНАЛИЧНЫЙ РАСЧЁТ
авг 26, 2016 8:46:35 PM pack.KassaLogger logInfo
INFO: СУММА ПОКУПОК: 771.37
авг 26, 2016 8:46:35 PM pack.KassaLogger logInfo
INFO: ОПЛАТА НЕ ПРОИЗОШЛА, НЕДОСТАТОЧНО СРЕДСТВ
авг 26, 2016 8:46:35 PM pack.KassaLogger logInfo
INFO: ===========================================================
авг 26, 2016 8:46:45 PM pack.KassaLogger logInfo
INFO: Чио-Рио / 3.0 / кг / 75.99 / 227.96999999999997
авг 26, 2016 8:46:45 PM pack.KassaLogger logInfo
INFO: Апельсин / 4 / шт / 42.5 / 170.0
авг 26, 2016 8:46:45 PM pack.KassaLogger logInfo
INFO: Груша / 2 / шт / 30.9 / 61.8
авг 26, 2016 8:46:45 PM pack.KassaLogger logInfo
INFO: Бананы / 4.0 / кг / 69.9 / 279.6
авг 26, 2016 8:46:45 PM pack.KassaLogger logInfo
INFO: Ирис / 1.000 / кг / 32.0 / 32.0
авг 26, 2016 8:46:45 PM pack.KassaLogger logInfo
INFO: НАЛИЧНЫЙ РАСЧЁТ
авг 26, 2016 8:46:45 PM pack.KassaLogger logInfo
INFO: СУММА ПОКУПОК: 771.37
авг 26, 2016 8:46:45 PM pack.KassaLogger logInfo
INFO: ВВЕДЕНА СУММА: 772.0
авг 26, 2016 8:46:45 PM pack.KassaLogger logInfo
INFO: СДАЧА: 0.6299999999999955
авг 26, 2016 8:46:45 PM pack.KassaLogger logInfo
INFO: ===========================================================
авг 26, 2016 8:48:39 PM pack.KassaLogger logInfo
INFO: Груша / 1 / шт / 30.9 / 30.9
авг 26, 2016 8:48:39 PM pack.KassaLogger logInfo
INFO: Апельсин / 1 / шт / 42.5 / 42.5
авг 26, 2016 8:48:39 PM pack.KassaLogger logInfo
INFO: НАЛИЧНЫЙ РАСЧЁТ
авг 26, 2016 8:48:39 PM pack.KassaLogger logInfo
INFO: СУММА ПОКУПОК: 235.56800000000004
авг 26, 2016 8:48:39 PM pack.KassaLogger logInfo
INFO: ВВЕДЕНА СУММА: 500.0
авг 26, 2016 8:48:39 PM pack.KassaLogger logInfo
INFO: СДАЧА: 264.43199999999996
авг 26, 2016 8:48:39 PM pack.KassaLogger logInfo
INFO: ===========================================================
авг 26, 2016 8:52:29 PM pack.KassaLogger logInfo
INFO: Яблоки / 1.000 / кг / 25.0 / 25.0
авг 26, 2016 8:52:29 PM pack.KassaLogger logInfo
INFO: Гранат / 2 / шт / 85.99 / 171.98
авг 26, 2016 8:52:29 PM pack.KassaLogger logInfo
INFO: НАЛИЧНЫЙ РАСЧЁТ
авг 26, 2016 8:52:29 PM pack.KassaLogger logInfo
INFO: СУММА ПОКУПОК: 281.98
авг 26, 2016 8:52:29 PM pack.KassaLogger logInfo
INFO: ВВЕДЕНА СУММА: 285.0
авг 26, 2016 8:52:29 PM pack.KassaLogger logInfo
INFO: СДАЧА: 3.019999999999982
авг 26, 2016 8:52:29 PM pack.KassaLogger logInfo
INFO: ===========================================================
авг 27, 2016 12:09:17 AM pack.KassaLogger logInfo
INFO: БЕЗНАЛИЧНЫЙ РАСЧЁТ
авг 27, 2016 12:09:17 AM pack.KassaLogger logInfo
INFO: СУММА ПОКУПОК: 42.5
авг 27, 2016 12:09:17 AM pack.KassaLogger logInfo
INFO: УСПЕШНАЯ ОПЛАТА
авг 27, 2016 12:09:17 AM pack.KassaLogger logInfo
INFO: ===========================================================
авг 27, 2016 12:10:14 AM pack.KassaLogger logInfo
INFO: Груша / 1 / шт / 30.9 / 30.9
авг 27, 2016 12:10:14 AM pack.KassaLogger logInfo
INFO: Апельсин / 1 / шт / 42.5 / 42.5
авг 27, 2016 12:10:14 AM pack.KassaLogger logInfo
INFO: НАЛИЧНЫЙ РАСЧЁТ
авг 27, 2016 12:10:14 AM pack.KassaLogger logInfo
INFO: СУММА ПОКУПОК: 159.39
авг 27, 2016 12:10:14 AM pack.KassaLogger logInfo
INFO: ВВЕДЕНА СУММА: 200.0
авг 27, 2016 12:10:14 AM pack.KassaLogger logInfo
INFO: СДАЧА: 40.610000000000014
авг 27, 2016 12:10:14 AM pack.KassaLogger logInfo
INFO: ===========================================================
