авг 26, 2016 4:27:14 PM pack.KassaLogger logInfo
INFO: ===========================================================
авг 26, 2016 8:46:35 PM pack.KassaLogger logInfo
INFO: ===========================================================
авг 26, 2016 8:46:45 PM pack.KassaLogger logInfo
INFO: Чио-Рио / 3.0 / кг / 75.99 / 227.96999999999997
авг 26, 2016 8:46:45 PM pack.KassaLogger logInfo
INFO: Апельсин / 4 / шт / 42.5 / 170.0
авг 26, 2016 8:46:45 PM pack.KassaLogger logInfo
INFO: Груша / 2 / шт / 30.9 / 61.8
авг 26, 2016 8:46:45 PM pack.KassaLogger logInfo
INFO: Бананы / 4.0 / кг / 69.9 / 279.6
авг 26, 2016 8:46:45 PM pack.KassaLogger logInfo
INFO: Ирис / 1.000 / кг / 32.0 / 32.0
авг 26, 2016 8:46:45 PM pack.KassaLogger logInfo
INFO: НАЛИЧНЫЙ РАСЧЁТ
авг 26, 2016 8:46:45 PM pack.KassaLogger logInfo
INFO: СУММА ПОКУПОК: 771.37
авг 26, 2016 8:46:45 PM pack.KassaLogger logInfo
INFO: ВВЕДЕНА СУММА: 772.0
авг 26, 2016 8:46:45 PM pack.KassaLogger logInfo
INFO: СДАЧА: 0.6299999999999955
авг 26, 2016 8:46:45 PM pack.KassaLogger logInfo
INFO: ===========================================================
