авг 26, 2016 8:46:45 PM pack.KassaLogger logInfo
INFO: НАЛИЧНЫЙ РАСЧЁТ
авг 26, 2016 8:46:45 PM pack.KassaLogger logInfo
INFO: СУММА ПОКУПОК: 771.37
авг 26, 2016 8:46:45 PM pack.KassaLogger logInfo
INFO: ВВЕДЕНА СУММА: 772.0
авг 26, 2016 8:46:45 PM pack.KassaLogger logInfo
INFO: СДАЧА: 0.6299999999999955
авг 26, 2016 8:46:45 PM pack.KassaLogger logInfo
INFO: ===========================================================
